Jun Ryu - Intro to Data Manipulation
…
The function definitely works as intended, but the code looks quite messy. What happens when we make use of tidyr and dplyr?

e) Convert the Data

First, we will convert our simulated dataset into a tidy format.

gradebook_tidy <- as_tibble(gradebook) %>% pivot_longer(names(gradebook)[-1], names_to = c("Assignment_Type", "Assignment_Number"), values_to = "Score", names_sep = "_")

gradebook_tidy

# A tibble: 1,000 × 4
         UID Assignment_Type Assignment_Number Score
       <dbl> <chr>           <chr>             <dbl>
 1 532521854 Homework        1                    45
 2 532521854 Homework        2                    17
 3 532521854 Homework        3                    75
 4 532521854 Homework        4                    22
 5 532521854 Homework        5                    13
 6 532521854 Quiz            1                    80
 7 532521854 Quiz            2                    87
 8 532521854 Quiz            3                    83
 9 532521854 Quiz            4                    82
10 532521854 Quiz            5                    11
# … with 990 more rows
…
